(footprint "sw_6.5_9" (version 20211014) (generator pcbnew)
  (layer "F.Cu")
  (tedit 621150B6)
  (attr smd)
  (fp_text reference "REF**" (at 0.2 -5.9 unlocked) (layer "F.SilkS")
    (effects (font (size 1 1) (thickness 0.15)))
    (tstamp 6862ba36-36ee-4189-a5cf-413acd253e1e)
  )
  (fp_text value "sw_6.5_9" (at 0.2 -4.4 unlocked) (layer "F.Fab")
    (effects (font (size 1 1) (thickness 0.15)))
    (tstamp 10b7afba-2f26-4685-a649-74b6bff7f4cf)
  )
  (fp_text user "${REFERENCE}" (at 0.2 -2.9 unlocked) (layer "F.Fab")
    (effects (font (size 1 1) (thickness 0.15)))
    (tstamp a5f1a03a-0328-4fbe-bb03-43667d97f62d)
  )
  (fp_rect (start -2.85 -2) (end 3.25 1.7) (layer "F.SilkS") (width 0.12) (fill none) (tstamp a3c554b3-eab3-4645-9075-14ef062ef6c5))
  (fp_rect (start -2.85 -2) (end 3.25 1.7) (layer "F.CrtYd") (width 0.12) (fill none) (tstamp fca4ec6e-796a-45e7-89d9-55d88a463990))
  (fp_rect (start -2.85 -2) (end 3.25 1.7) (layer "F.Fab") (width 0.12) (fill none) (tstamp 0847b7d3-501a-4c52-b4e0-7f51a1d59aa6))
  (pad "1" smd roundrect (at -4 0) (size 2 2.1) (layers "F.Cu" "F.Paste" "F.Mask") (roundrect_rratio 0.25) (tstamp da45010f-ef64-4740-82f1-fee030820c70))
  (pad "2" smd roundrect (at 4.5 0) (size 2 2.1) (layers "F.Cu" "F.Paste" "F.Mask") (roundrect_rratio 0.25) (tstamp 6aa368e3-62ff-4ec4-825d-d1eafdd7705a))
)
