(kicad_symbol_lib (version 20211014) (generator kicad_symbol_editor)
  (symbol "+3V3" (power) (pin_names (offset 0)) (in_bom yes) (on_board yes)
    (property "Reference" "#PWR" (id 0) (at 0 -3.81 0)
      (effects (font (size 1.27 1.27)) hide)
    )
    (property "Value" "+3V3" (id 1) (at 0 3.81 0)
      (effects (font (size 1.27 1.27)))
    )
    (property "Footprint" "" (id 2) (at 0 0 0)
      (effects (font (size 1.27 1.27)) hide)
    )
    (property "Datasheet" "" (id 3) (at 0 0 0)
      (effects (font (size 1.27 1.27)) hide)
    )
    (property "ki_keywords" "power-flag" (id 4) (at 0 0 0)
      (effects (font (size 1.27 1.27)) hide)
    )
    (property "ki_description" "Power symbol creates a global label with name \"VCC\"" (id 5) (at 0 0 0)
      (effects (font (size 1.27 1.27)) hide)
    )
    (symbol "+3V3_0_1"
      (polyline
        (pts
          (xy -1.27 2.54)
          (xy 0 2.54)
        )
        (stroke (width 0) (type default) (color 0 0 0 0))
        (fill (type none))
      )
      (polyline
        (pts
          (xy 0 0)
          (xy 0 2.54)
        )
        (stroke (width 0) (type default) (color 0 0 0 0))
        (fill (type none))
      )
      (polyline
        (pts
          (xy 0 2.54)
          (xy 1.27 2.54)
        )
        (stroke (width 0) (type default) (color 0 0 0 0))
        (fill (type none))
      )
    )
    (symbol "+3V3_1_1"
      (pin power_in line (at 0 0 90) (length 0) hide
        (name "+5V" (effects (font (size 1.27 1.27))))
        (number "1" (effects (font (size 1.27 1.27))))
      )
    )
  )
  (symbol "+5V" (power) (pin_names (offset 0)) (in_bom yes) (on_board yes)
    (property "Reference" "#PWR" (id 0) (at 0 -3.81 0)
      (effects (font (size 1.27 1.27)) hide)
    )
    (property "Value" "+5V" (id 1) (at 0 3.81 0)
      (effects (font (size 1.27 1.27)))
    )
    (property "Footprint" "" (id 2) (at 0 0 0)
      (effects (font (size 1.27 1.27)) hide)
    )
    (property "Datasheet" "" (id 3) (at 0 0 0)
      (effects (font (size 1.27 1.27)) hide)
    )
    (property "ki_keywords" "power-flag" (id 4) (at 0 0 0)
      (effects (font (size 1.27 1.27)) hide)
    )
    (property "ki_description" "Power symbol creates a global label with name \"VCC\"" (id 5) (at 0 0 0)
      (effects (font (size 1.27 1.27)) hide)
    )
    (symbol "+5V_0_1"
      (polyline
        (pts
          (xy -1.27 2.54)
          (xy 0 2.54)
        )
        (stroke (width 0) (type default) (color 0 0 0 0))
        (fill (type none))
      )
      (polyline
        (pts
          (xy 0 0)
          (xy 0 2.54)
        )
        (stroke (width 0) (type default) (color 0 0 0 0))
        (fill (type none))
      )
      (polyline
        (pts
          (xy 0 2.54)
          (xy 1.27 2.54)
        )
        (stroke (width 0) (type default) (color 0 0 0 0))
        (fill (type none))
      )
    )
    (symbol "+5V_1_1"
      (pin power_in line (at 0 0 90) (length 0) hide
        (name "+5V" (effects (font (size 1.27 1.27))))
        (number "1" (effects (font (size 1.27 1.27))))
      )
    )
  )
  (symbol "Earth" (power) (pin_names (offset 0)) (in_bom yes) (on_board yes)
    (property "Reference" "#PWR" (id 0) (at 0 -5.08 0)
      (effects (font (size 1.27 1.27)) hide)
    )
    (property "Value" "Earth" (id 1) (at 0 -3.302 0)
      (effects (font (size 1.27 1.27)) hide)
    )
    (property "Footprint" "" (id 2) (at 0 -1.27 0)
      (effects (font (size 1.27 1.27)) hide)
    )
    (property "Datasheet" "" (id 3) (at 0 -1.27 0)
      (effects (font (size 1.27 1.27)) hide)
    )
    (property "ki_keywords" "power-flag" (id 4) (at 0 0 0)
      (effects (font (size 1.27 1.27)) hide)
    )
    (property "ki_description" "Power symbol creates a global label with name \"GNDPWR\" , power ground" (id 5) (at 0 0 0)
      (effects (font (size 1.27 1.27)) hide)
    )
    (symbol "Earth_0_1"
      (polyline
        (pts
          (xy 0 -1.27)
          (xy 0 0)
        )
        (stroke (width 0) (type default) (color 0 0 0 0))
        (fill (type none))
      )
      (polyline
        (pts
          (xy -1.016 -1.27)
          (xy -1.27 -2.032)
          (xy -1.27 -2.032)
        )
        (stroke (width 0.2032) (type default) (color 0 0 0 0))
        (fill (type none))
      )
      (polyline
        (pts
          (xy -0.508 -1.27)
          (xy -0.762 -2.032)
          (xy -0.762 -2.032)
        )
        (stroke (width 0.2032) (type default) (color 0 0 0 0))
        (fill (type none))
      )
      (polyline
        (pts
          (xy 0 -1.27)
          (xy -0.254 -2.032)
          (xy -0.254 -2.032)
        )
        (stroke (width 0.2032) (type default) (color 0 0 0 0))
        (fill (type none))
      )
      (polyline
        (pts
          (xy 0.508 -1.27)
          (xy 0.254 -2.032)
          (xy 0.254 -2.032)
        )
        (stroke (width 0.2032) (type default) (color 0 0 0 0))
        (fill (type none))
      )
      (polyline
        (pts
          (xy 1.016 -1.27)
          (xy -1.016 -1.27)
          (xy -1.016 -1.27)
        )
        (stroke (width 0.2032) (type default) (color 0 0 0 0))
        (fill (type none))
      )
      (polyline
        (pts
          (xy 1.016 -1.27)
          (xy 0.762 -2.032)
          (xy 0.762 -2.032)
          (xy 0.762 -2.032)
        )
        (stroke (width 0.2032) (type default) (color 0 0 0 0))
        (fill (type none))
      )
    )
    (symbol "Earth_1_1"
      (pin power_in line (at 0 0 270) (length 0) hide
        (name "GNDPWR" (effects (font (size 1.27 1.27))))
        (number "1" (effects (font (size 1.27 1.27))))
      )
    )
  )
  (symbol "GND" (power) (pin_names (offset 0)) (in_bom yes) (on_board yes)
    (property "Reference" "#PWR" (id 0) (at 0 -6.35 0)
      (effects (font (size 1.27 1.27)) hide)
    )
    (property "Value" "GND" (id 1) (at 0 -3.81 0)
      (effects (font (size 1.27 1.27)) hide)
    )
    (property "Footprint" "" (id 2) (at 0 0 0)
      (effects (font (size 1.27 1.27)) hide)
    )
    (property "Datasheet" "~" (id 3) (at 0 0 0)
      (effects (font (size 1.27 1.27)) hide)
    )
    (property "ki_keywords" "power-flag ground gnd" (id 4) (at 0 0 0)
      (effects (font (size 1.27 1.27)) hide)
    )
    (property "ki_description" "Power symbol creates a global label with name \"Earth\"" (id 5) (at 0 0 0)
      (effects (font (size 1.27 1.27)) hide)
    )
    (symbol "GND_0_1"
      (polyline
        (pts
          (xy -0.635 -1.905)
          (xy 0.635 -1.905)
        )
        (stroke (width 0) (type default) (color 0 0 0 0))
        (fill (type none))
      )
      (polyline
        (pts
          (xy -0.127 -2.54)
          (xy 0.127 -2.54)
        )
        (stroke (width 0) (type default) (color 0 0 0 0))
        (fill (type none))
      )
      (polyline
        (pts
          (xy 0 -1.27)
          (xy 0 0)
        )
        (stroke (width 0) (type default) (color 0 0 0 0))
        (fill (type none))
      )
      (polyline
        (pts
          (xy 1.27 -1.27)
          (xy -1.27 -1.27)
        )
        (stroke (width 0) (type default) (color 0 0 0 0))
        (fill (type none))
      )
    )
    (symbol "GND_1_1"
      (pin power_in line (at 0 0 270) (length 0) hide
        (name "GND" (effects (font (size 1.27 1.27))))
        (number "1" (effects (font (size 1.27 1.27))))
      )
    )
  )
  (symbol "LM317_TO-220" (pin_names (offset 0.254)) (in_bom yes) (on_board yes)
    (property "Reference" "U1" (id 0) (at 5.08 3.81 0)
      (effects (font (size 1.27 1.27)) (justify left))
    )
    (property "Value" "LM317" (id 1) (at -5.08 3.81 0)
      (effects (font (size 1.27 1.27)) (justify left))
    )
    (property "Footprint" "Package_TO_SOT_THT:TO-220-3_Vertical" (id 2) (at 0 6.35 0)
      (effects (font (size 1.27 1.27)) (justify left) hide)
    )
    (property "Datasheet" "https://www.ti.com/document-viewer/LM317-N/datasheet" (id 3) (at 0 0 0)
      (effects (font (size 1.27 1.27)) (justify left) hide)
    )
    (property "ki_keywords" "Adjustable Voltage Regulator 1A Positive" (id 4) (at 0 0 0)
      (effects (font (size 1.27 1.27)) hide)
    )
    (property "ki_description" "1.5A 35V Adjustable Linear Regulator, TO-220" (id 5) (at 0 0 0)
      (effects (font (size 1.27 1.27)) hide)
    )
    (property "ki_fp_filters" "TO?220*" (id 6) (at 0 0 0)
      (effects (font (size 1.27 1.27)) hide)
    )
    (symbol "LM317_TO-220_0_1"
      (rectangle (start -5.08 1.905) (end 5.08 -5.08)
        (stroke (width 0.254) (type default) (color 0 0 0 0))
        (fill (type background))
      )
    )
    (symbol "LM317_TO-220_1_1"
      (pin passive line (at 0 -7.62 90) (length 2.54)
        (name "ADJ" (effects (font (size 1.27 1.27))))
        (number "1" (effects (font (size 1.27 1.27))))
      )
      (pin passive line (at 7.62 0 180) (length 2.54)
        (name "VO" (effects (font (size 1.27 1.27))))
        (number "2" (effects (font (size 1.27 1.27))))
      )
      (pin passive line (at -7.62 0 0) (length 2.54)
        (name "VI" (effects (font (size 1.27 1.27))))
        (number "3" (effects (font (size 1.27 1.27))))
      )
    )
  )
  (symbol "LM7805_TO220" (pin_names (offset 0.254)) (in_bom yes) (on_board yes)
    (property "Reference" "U2" (id 0) (at 5.08 3.81 0)
      (effects (font (size 1.27 1.27)) (justify left))
    )
    (property "Value" "LM7805" (id 1) (at -5.08 3.81 0)
      (effects (font (size 1.27 1.27)) (justify left))
    )
    (property "Footprint" "Package_TO_SOT_THT:TO-220-3_Vertical" (id 2) (at 0 5.715 0)
      (effects (font (size 1.27 1.27)) (justify left) hide)
    )
    (property "Datasheet" "https://www.onsemi.cn/PowerSolutions/document/MC7800-D.PDF" (id 3) (at 0 -1.27 0)
      (effects (font (size 1.27 1.27)) (justify left) hide)
    )
    (property "ki_keywords" "Voltage Regulator 1A Positive" (id 4) (at 0 0 0)
      (effects (font (size 1.27 1.27)) hide)
    )
    (property "ki_description" "Positive 1A 35V Linear Regulator, Fixed Output 5V, TO-220" (id 5) (at 0 0 0)
      (effects (font (size 1.27 1.27)) hide)
    )
    (property "ki_fp_filters" "TO?220*" (id 6) (at 0 0 0)
      (effects (font (size 1.27 1.27)) hide)
    )
    (symbol "LM7805_TO220_0_1"
      (rectangle (start -5.08 1.905) (end 5.08 -5.08)
        (stroke (width 0.254) (type default) (color 0 0 0 0))
        (fill (type background))
      )
    )
    (symbol "LM7805_TO220_1_1"
      (pin passive line (at -7.62 0 0) (length 2.54)
        (name "VI" (effects (font (size 1.27 1.27))))
        (number "1" (effects (font (size 1.27 1.27))))
      )
      (pin passive line (at 0 -7.62 90) (length 2.54)
        (name "GND" (effects (font (size 1.27 1.27))))
        (number "2" (effects (font (size 1.27 1.27))))
      )
      (pin passive line (at 7.62 0 180) (length 2.54)
        (name "VO" (effects (font (size 1.27 1.27))))
        (number "3" (effects (font (size 1.27 1.27))))
      )
    )
  )
  (symbol "Line" (power) (pin_names (offset 0)) (in_bom yes) (on_board yes)
    (property "Reference" "#PWR" (id 0) (at 0 -3.81 0)
      (effects (font (size 1.27 1.27)) hide)
    )
    (property "Value" "Line" (id 1) (at 0 3.81 0)
      (effects (font (size 1.27 1.27)))
    )
    (property "Footprint" "" (id 2) (at 0 0 0)
      (effects (font (size 1.27 1.27)) hide)
    )
    (property "Datasheet" "" (id 3) (at 0 0 0)
      (effects (font (size 1.27 1.27)) hide)
    )
    (property "ki_keywords" "power-flag" (id 4) (at 0 0 0)
      (effects (font (size 1.27 1.27)) hide)
    )
    (property "ki_description" "Power symbol creates a global label with name \"VCC\"" (id 5) (at 0 0 0)
      (effects (font (size 1.27 1.27)) hide)
    )
    (symbol "Line_0_1"
      (polyline
        (pts
          (xy -1.27 2.54)
          (xy 0 2.54)
        )
        (stroke (width 0) (type default) (color 0 0 0 0))
        (fill (type none))
      )
      (polyline
        (pts
          (xy 0 0)
          (xy 0 2.54)
        )
        (stroke (width 0) (type default) (color 0 0 0 0))
        (fill (type none))
      )
      (polyline
        (pts
          (xy 0 2.54)
          (xy 1.27 2.54)
        )
        (stroke (width 0) (type default) (color 0 0 0 0))
        (fill (type none))
      )
    )
    (symbol "Line_1_1"
      (pin power_in line (at 0 0 90) (length 0) hide
        (name "+5V" (effects (font (size 1.27 1.27))))
        (number "1" (effects (font (size 1.27 1.27))))
      )
    )
  )
  (symbol "Neutral" (power) (pin_names (offset 0)) (in_bom yes) (on_board yes)
    (property "Reference" "#PWR" (id 0) (at 0 -3.81 0)
      (effects (font (size 1.27 1.27)) hide)
    )
    (property "Value" "Neutral" (id 1) (at 0 3.81 0)
      (effects (font (size 1.27 1.27)))
    )
    (property "Footprint" "" (id 2) (at 0 0 0)
      (effects (font (size 1.27 1.27)) hide)
    )
    (property "Datasheet" "" (id 3) (at 0 0 0)
      (effects (font (size 1.27 1.27)) hide)
    )
    (property "ki_keywords" "power-flag" (id 4) (at 0 0 0)
      (effects (font (size 1.27 1.27)) hide)
    )
    (property "ki_description" "Power symbol creates a global label with name \"VCC\"" (id 5) (at 0 0 0)
      (effects (font (size 1.27 1.27)) hide)
    )
    (symbol "Neutral_0_1"
      (polyline
        (pts
          (xy -1.27 2.54)
          (xy 0 2.54)
        )
        (stroke (width 0) (type default) (color 0 0 0 0))
        (fill (type none))
      )
      (polyline
        (pts
          (xy 0 0)
          (xy 0 2.54)
        )
        (stroke (width 0) (type default) (color 0 0 0 0))
        (fill (type none))
      )
      (polyline
        (pts
          (xy 0 2.54)
          (xy 1.27 2.54)
        )
        (stroke (width 0) (type default) (color 0 0 0 0))
        (fill (type none))
      )
    )
    (symbol "Neutral_1_1"
      (pin power_in line (at 0 0 90) (length 0) hide
        (name "+5V" (effects (font (size 1.27 1.27))))
        (number "1" (effects (font (size 1.27 1.27))))
      )
    )
  )
  (symbol "VCC" (power) (pin_names (offset 0)) (in_bom yes) (on_board yes)
    (property "Reference" "#PWR" (id 0) (at 0 -3.81 0)
      (effects (font (size 1.27 1.27)) hide)
    )
    (property "Value" "VCC" (id 1) (at 0 3.81 0)
      (effects (font (size 1.27 1.27)))
    )
    (property "Footprint" "" (id 2) (at 0 0 0)
      (effects (font (size 1.27 1.27)) hide)
    )
    (property "Datasheet" "" (id 3) (at 0 0 0)
      (effects (font (size 1.27 1.27)) hide)
    )
    (property "ki_keywords" "power-flag" (id 4) (at 0 0 0)
      (effects (font (size 1.27 1.27)) hide)
    )
    (property "ki_description" "Power symbol creates a global label with name \"VCC\"" (id 5) (at 0 0 0)
      (effects (font (size 1.27 1.27)) hide)
    )
    (symbol "VCC_0_1"
      (polyline
        (pts
          (xy -1.27 2.54)
          (xy 0 2.54)
        )
        (stroke (width 0) (type default) (color 0 0 0 0))
        (fill (type none))
      )
      (polyline
        (pts
          (xy 0 0)
          (xy 0 2.54)
        )
        (stroke (width 0) (type default) (color 0 0 0 0))
        (fill (type none))
      )
      (polyline
        (pts
          (xy 0 2.54)
          (xy 1.27 2.54)
        )
        (stroke (width 0) (type default) (color 0 0 0 0))
        (fill (type none))
      )
    )
    (symbol "VCC_1_1"
      (pin power_in line (at 0 0 90) (length 0) hide
        (name "VCC" (effects (font (size 1.27 1.27))))
        (number "1" (effects (font (size 1.27 1.27))))
      )
    )
  )
  (symbol "VSS" (power) (pin_names (offset 0)) (in_bom yes) (on_board yes)
    (property "Reference" "#PWR" (id 0) (at 0 -3.81 0)
      (effects (font (size 1.27 1.27)) hide)
    )
    (property "Value" "VSS" (id 1) (at 0 -3.81 0)
      (effects (font (size 1.27 1.27)))
    )
    (property "Footprint" "" (id 2) (at 0 0 0)
      (effects (font (size 1.27 1.27)) hide)
    )
    (property "Datasheet" "" (id 3) (at 0 0 0)
      (effects (font (size 1.27 1.27)) hide)
    )
    (property "ki_keywords" "power-flag" (id 4) (at 0 0 0)
      (effects (font (size 1.27 1.27)) hide)
    )
    (property "ki_description" "Power symbol creates a global label with name \"VCC\"" (id 5) (at 0 0 0)
      (effects (font (size 1.27 1.27)) hide)
    )
    (symbol "VSS_0_1"
      (polyline
        (pts
          (xy 0 -2.54)
          (xy -1.27 -2.54)
        )
        (stroke (width 0) (type default) (color 0 0 0 0))
        (fill (type none))
      )
      (polyline
        (pts
          (xy 0 0)
          (xy 0 -2.54)
        )
        (stroke (width 0) (type default) (color 0 0 0 0))
        (fill (type none))
      )
      (polyline
        (pts
          (xy 1.27 -2.54)
          (xy 0 -2.54)
        )
        (stroke (width 0) (type default) (color 0 0 0 0))
        (fill (type none))
      )
    )
    (symbol "VSS_1_1"
      (pin power_in line (at 0 0 270) (length 0) hide
        (name "VSS" (effects (font (size 1.27 1.27))))
        (number "1" (effects (font (size 1.27 1.27))))
      )
    )
  )
  (symbol "Vin" (power) (pin_names (offset 0)) (in_bom yes) (on_board yes)
    (property "Reference" "#PWR" (id 0) (at 0 -3.81 0)
      (effects (font (size 1.27 1.27)) hide)
    )
    (property "Value" "Vin" (id 1) (at 0 3.81 0)
      (effects (font (size 1.27 1.27)))
    )
    (property "Footprint" "" (id 2) (at 0 0 0)
      (effects (font (size 1.27 1.27)) hide)
    )
    (property "Datasheet" "" (id 3) (at 0 0 0)
      (effects (font (size 1.27 1.27)) hide)
    )
    (property "ki_keywords" "power-flag" (id 4) (at 0 0 0)
      (effects (font (size 1.27 1.27)) hide)
    )
    (property "ki_description" "Power symbol creates a global label with name \"VCC\"" (id 5) (at 0 0 0)
      (effects (font (size 1.27 1.27)) hide)
    )
    (symbol "Vin_0_1"
      (polyline
        (pts
          (xy -1.27 2.54)
          (xy 0 2.54)
        )
        (stroke (width 0) (type default) (color 0 0 0 0))
        (fill (type none))
      )
      (polyline
        (pts
          (xy 0 0)
          (xy 0 2.54)
        )
        (stroke (width 0) (type default) (color 0 0 0 0))
        (fill (type none))
      )
      (polyline
        (pts
          (xy 0 2.54)
          (xy 1.27 2.54)
        )
        (stroke (width 0) (type default) (color 0 0 0 0))
        (fill (type none))
      )
    )
    (symbol "Vin_1_1"
      (pin power_in line (at 0 0 90) (length 0) hide
        (name "Vin" (effects (font (size 1.27 1.27))))
        (number "1" (effects (font (size 1.27 1.27))))
      )
    )
  )
  (symbol "Vvar" (power) (pin_names (offset 0)) (in_bom yes) (on_board yes)
    (property "Reference" "#PWR" (id 0) (at 0 -3.81 0)
      (effects (font (size 1.27 1.27)) hide)
    )
    (property "Value" "Vvar" (id 1) (at 0 3.81 0)
      (effects (font (size 1.27 1.27)))
    )
    (property "Footprint" "" (id 2) (at 0 0 0)
      (effects (font (size 1.27 1.27)) hide)
    )
    (property "Datasheet" "" (id 3) (at 0 0 0)
      (effects (font (size 1.27 1.27)) hide)
    )
    (property "ki_keywords" "power-flag" (id 4) (at 0 0 0)
      (effects (font (size 1.27 1.27)) hide)
    )
    (property "ki_description" "Power symbol creates a global label with name \"VCC\"" (id 5) (at 0 0 0)
      (effects (font (size 1.27 1.27)) hide)
    )
    (symbol "Vvar_0_1"
      (polyline
        (pts
          (xy -1.27 2.54)
          (xy 0 2.54)
        )
        (stroke (width 0) (type default) (color 0 0 0 0))
        (fill (type none))
      )
      (polyline
        (pts
          (xy 0 0)
          (xy 0 2.54)
        )
        (stroke (width 0) (type default) (color 0 0 0 0))
        (fill (type none))
      )
      (polyline
        (pts
          (xy 0 2.54)
          (xy 1.27 2.54)
        )
        (stroke (width 0) (type default) (color 0 0 0 0))
        (fill (type none))
      )
    )
    (symbol "Vvar_1_1"
      (pin power_in line (at 0 0 90) (length 0) hide
        (name "Vvar" (effects (font (size 1.27 1.27))))
        (number "1" (effects (font (size 1.27 1.27))))
      )
    )
  )
)
